<?xml version="1.0" standalone="no"?>
<!DOCTYPE svg PUBLIC "-//W3C//DTD SVG 20010904//EN"
 "http://www.w3.org/TR/2001/REC-SVG-20010904/DTD/svg10.dtd">
<svg version="1.0" xmlns="http://www.w3.org/2000/svg"
 width="1000.000000pt" height="1000.000000pt" viewBox="0 0 1000.000000 1000.000000"
 preserveAspectRatio="xMidYMid meet">
<metadata>
Created by potrace 1.14, written by Peter Selinger 2001-2017
</metadata>
<g transform="translate(0.000000,1000.000000) scale(0.100000,-0.100000)"
fill="#000000" stroke="none">
<path d="M2362 7009 c-386 -45 -638 -231 -725 -536 l-22 -78 -3 -1690 c-2
-1459 0 -1693 12 -1710 13 -19 33 -21 288 -29 366 -13 553 -12 571 2 8 7 17 9
20 5 4 -3 9 2 13 11 3 9 10 13 15 11 5 -4 9 294 9 678 0 490 4 694 12 718 21
62 68 122 118 150 l25 13 -35 7 c-25 5 -9 7 55 10 l90 3 -85 6 c-105 8 165 12
655 11 182 0 398 3 480 7 83 4 -174 6 -570 4 -396 -2 -718 -1 -715 1 3 3 444
8 980 12 927 6 975 7 1000 25 l25 18 -3 344 c-3 283 -6 346 -18 358 -13 13
-143 16 -1007 20 l-991 5 -13 25 c-16 31 -8 527 9 547 6 7 8 22 5 34 -3 12 -3
18 0 15 9 -8 43 45 43 66 0 9 -6 18 -12 21 -7 2 -10 8 -6 12 4 4 14 2 23 -5
13 -11 14 -9 9 17 -4 21 -1 33 13 44 16 12 17 12 6 -2 -10 -13 -10 -19 2 -35
14 -18 14 -18 15 6 1 23 2 23 10 5 l8 -20 8 20 c4 11 20 34 36 50 25 27 36 31
100 35 51 3 72 9 71 18 -2 8 10 12 37 12 22 0 40 4 40 10 0 7 307 10 897 10
738 0 900 2 911 13 10 11 13 83 12 358 0 337 0 344 -21 362 -20 16 -90 17
-1173 16 -633 -1 -1184 -5 -1224 -10z m268 -803 c0 -3 -4 -8 -10 -11 -5 -3
-10 -1 -10 4 0 6 5 11 10 11 6 0 10 -2 10 -4z m25 -16 c-3 -5 -11 -10 -16 -10
-6 0 -7 5 -4 10 3 6 11 10 16 10 6 0 7 -4 4 -10z m-73 -62 c-7 -7 -12 -8 -12
-2 0 14 12 26 19 19 2 -3 -1 -11 -7 -17z m-25 -70 c-3 -7 -5 -2 -5 12 0 14 2
19 5 13 2 -7 2 -19 0 -25z"/>
<path d="M5250 7000 c-19 -19 -20 -31 -20 -374 0 -292 3 -357 14 -369 18 -17
506 -27 1408 -27 610 0 628 -1 638 -19 16 -31 12 -64 -13 -93 -12 -14 -468
-422 -1014 -906 -545 -484 -1010 -904 -1034 -934 -144 -181 -181 -302 -181
-588 0 -126 4 -170 21 -235 49 -186 137 -302 285 -375 87 -43 231 -88 309 -96
27 -3 58 -9 70 -13 13 -5 609 -8 1326 -7 1277 1 1303 1 1317 20 11 16 14 81
14 357 0 185 -3 350 -6 367 -5 23 -14 34 -37 41 -20 8 -365 11 -1071 11 -1004
0 -1146 3 -1146 21 0 5 7 9 15 9 8 0 15 4 15 9 0 6 10 26 21 46 16 27 24 33
34 25 9 -8 15 -8 20 0 3 5 0 10 -8 10 -18 0 60 83 98 103 17 9 49 34 71 55 23
21 48 42 57 45 19 7 10 57 -10 57 -10 0 -14 -7 -10 -20 4 -17 2 -18 -15 -9
-20 11 -20 11 1 30 26 24 27 24 57 -6 33 -33 67 -22 45 14 -7 11 -2 22 15 38
14 13 29 21 33 19 4 -3 18 6 29 19 12 14 17 25 10 25 -18 0 2 15 42 30 33 14
70 43 70 56 0 4 12 17 26 30 14 14 22 29 18 36 -5 7 0 9 14 6 12 -4 22 -2 22
2 0 5 14 15 30 24 32 16 41 3 18 -25 -7 -7 -2 -4 12 8 19 18 22 25 12 35 -17
17 -15 48 4 48 8 0 12 -4 9 -10 -13 -22 7 -8 51 35 26 24 50 42 55 39 4 -2 12
3 18 13 7 13 4 25 -10 44 -12 17 -15 30 -9 34 5 3 15 -5 21 -18 6 -13 18 -24
28 -23 21 1 143 124 136 136 -4 6 3 10 14 10 12 0 21 5 21 10 0 6 7 10 16 10
11 0 14 5 10 16 -5 13 -1 15 21 11 16 -4 22 -4 16 -1 -20 9 -15 34 7 34 11 0
20 7 20 15 0 8 4 15 8 15 4 0 16 14 26 31 14 24 21 28 27 18 7 -11 17 -9 51
10 48 27 73 56 73 86 0 14 7 20 21 19 15 0 20 5 17 17 -4 13 3 20 23 25 16 4
42 18 57 31 16 13 32 21 37 18 4 -3 6 5 2 17 -3 14 -2 19 6 14 7 -4 12 -1 12
6 0 7 20 32 45 56 24 23 38 42 30 42 -8 0 -15 5 -15 10 0 6 7 10 16 10 9 0 18
9 21 20 6 21 27 31 74 32 17 1 33 7 36 15 3 7 14 13 24 13 10 0 19 4 19 9 0 6
29 39 65 74 36 36 65 70 65 76 0 6 6 11 13 11 6 0 23 12 36 25 13 14 27 25 32
25 17 0 9 48 -8 54 -10 3 -5 4 12 2 21 -3 36 2 52 20 12 13 27 24 33 24 5 0
10 5 10 10 0 11 -11 13 -34 4 -9 -3 -13 -11 -9 -18 3 -6 3 -8 -2 -4 -4 4 -14
3 -21 -3 -9 -7 -12 -6 -10 8 2 10 12 19 24 21 14 2 26 16 34 38 7 19 17 33 24
30 6 -2 16 5 21 17 21 45 66 183 72 222 4 23 10 46 14 52 25 41 29 410 5 498
-21 77 -66 175 -80 175 -5 0 -8 6 -8 14 0 8 -7 16 -15 20 -8 3 -15 12 -15 20
0 8 -15 26 -32 40 -18 15 -40 32 -48 39 -8 6 -22 17 -30 22 -9 6 -32 20 -51
33 -42 28 -124 59 -209 80 -58 14 -209 16 -1322 19 -1254 4 -1257 4 -1278 -17z
m2815 -1410 c3 -5 -1 -10 -10 -10 -9 0 -13 5 -10 10 3 6 8 10 10 10 2 0 7 -4
10 -10z m-45 -33 c0 -8 -7 -14 -15 -14 -11 0 -12 4 -4 14 6 7 13 13 15 13 2 0
4 -6 4 -13z m-37 -42 c0 -6 -7 -11 -16 -13 -12 -3 -15 1 -11 13 7 17 25 17 27
0z m-43 -49 c-1 -25 -50 -61 -50 -36 0 6 5 10 11 10 5 0 7 5 4 10 -3 6 -4 14
-1 18 8 13 36 11 36 -2z m-96 -72 c3 -8 2 -12 -4 -9 -6 3 -10 10 -10 16 0 14
7 11 14 -7z m-19 -34 c-3 -5 -13 -6 -21 -3 -12 4 -13 8 -3 14 15 9 32 2 24
-11z m-165 -156 c0 -2 -7 -4 -15 -4 -8 0 -15 4 -15 10 0 5 7 7 15 4 8 -4 15
-8 15 -10z m-57 -59 c-3 -8 -9 -15 -14 -15 -10 0 -12 24 -3 33 11 11 24 -3 17
-18z m-18 -21 c13 -5 14 -8 3 -15 -19 -13 -28 -11 -28 6 0 17 2 18 25 9z m-70
-53 c-8 -26 -21 -27 -34 -2 -9 16 -8 18 9 14 12 -3 20 0 20 8 0 7 3 10 6 6 3
-3 3 -15 -1 -26z m-68 -67 c14 -14 13 -17 -7 -39 -19 -20 -25 -22 -41 -12 -11
7 -19 17 -19 24 0 21 18 15 25 -8 7 -19 7 -20 20 -2 12 15 12 20 0 29 -8 6
-12 14 -8 17 9 10 13 9 30 -9z m-119 -66 c-2 -6 -10 -14 -16 -16 -7 -2 -10 2
-6 12 7 18 28 22 22 4z m-54 -43 c-4 -8 -11 -15 -16 -15 -6 0 -5 6 2 15 7 8
14 15 16 15 2 0 1 -7 -2 -15z m-64 -49 c0 -8 -58 -66 -66 -66 -4 0 7 16 26 35
33 34 40 39 40 31z m-260 -241 c0 -2 -10 -10 -22 -16 -21 -11 -22 -11 -9 4 13
16 31 23 31 12z m10 -35 c0 -5 -5 -10 -11 -10 -5 0 -7 5 -4 10 3 6 8 10 11 10
2 0 4 -4 4 -10z m-80 -30 c0 -5 -5 -10 -11 -10 -5 0 -7 5 -4 10 3 6 8 10 11
10 2 0 4 -4 4 -10z m-36 -35 c-4 -8 -11 -15 -16 -15 -6 0 -5 6 2 15 7 8 14 15
16 15 2 0 1 -7 -2 -15z m-67 -61 c-3 -3 -12 -4 -19 -1 -8 3 -5 6 6 6 11 1 17
-2 13 -5z m-37 -40 c0 -8 -4 -12 -10 -9 -5 3 -10 1 -10 -5 0 -6 -5 -8 -10 -5
-8 5 -7 11 1 21 15 19 29 18 29 -2z m-46 -40 c20 -8 21 -24 2 -24 -8 0 -16 7
-20 15 -6 17 -4 18 18 9z m-138 -113 c0 -11 -5 -17 -13 -14 -10 4 -11 9 -2 19
15 18 15 18 15 -5z m-26 -25 c0 -3 -4 -8 -10 -11 -5 -3 -10 -1 -10 4 0 6 5 11
10 11 6 0 10 -2 10 -4z m-36 -65 c-4 -3 -9 0 -11 7 -3 6 -10 9 -15 6 -7 -4 -8
-2 -4 5 6 9 11 9 22 0 8 -6 12 -15 8 -18z m-194 -136 c-7 -9 -15 -13 -17 -11
-7 7 7 26 19 26 6 0 6 -6 -2 -15z m-85 -118 c-8 -13 -28 -29 -43 -36 l-27 -13
23 22 c12 12 20 25 17 30 -5 7 10 15 38 19 4 0 1 -10 -8 -22z m-68 -63 c-3 -3
-12 -4 -19 -1 -8 3 -5 6 6 6 11 1 17 -2 13 -5z m-77 -40 c0 -8 -4 -12 -10 -9
-5 3 -10 10 -10 16 0 5 5 9 10 9 6 0 10 -7 10 -16z"/>
<path d="M2720 6166 c0 -9 8 -12 25 -8 37 7 41 22 6 22 -20 0 -31 -5 -31 -14z"/>
<path d="M4193 4603 c26 -2 67 -2 90 0 23 2 2 3 -48 3 -49 0 -68 -1 -42 -3z"/>
<path d="M4408 4603 c6 -2 18 -2 25 0 6 3 1 5 -13 5 -14 0 -19 -2 -12 -5z"/>
</g>
</svg>
